AN|OPER|OPTYPE|DROPID|DATEIN|TIMEIN|DATEOUT|TIMEOUT
66019615|9339|1|ว.16033|20231024|1330|20231024|1330
66019734|9312|1|ว.16033|20231026|1000|20231026|1000
66019751|8029|1|ว.32507|20231025|1600|20231025|1600
66019756|9929|1|ว.53574|20231024|1030|20231024|1030
66019761|9357|1|ว.16033|20231025|1200|20231025|1200
66019784|9929|1|ว.42334|20231024|2250|20231024|2250
66019789|9357|1|ว.16033|20231026|1800|20231026|1800
66019795|9338|1|ว.16033|20231026|1330|20231026|1330
66019821|9396|1|ว.32478|20231027|1000|20231027|1000
66019843|9311|1|ว.16033|20231027|1030|20231027|1030
66019857|9929|1|ว.42334|20231024|1915|20231024|1915
66019858|8954|1|ว.32478|20231027|0600|20231027|0600
66019861|9983|1|ว.25500|20231026|0900|20231026|0900
66019877|5314|1|ว.34972|20231025|0000|20231025|0000
66019888|064|1|ว.28743|20231025|1330|20231025|1330
66019892|9904|1|ว.32478|20231024|2200|20231024|2200
66019897|9339|1|ว.16033|20231026|1330|20231026|1330
66019903|2631|1|ว.28743|20231025|1130|20231025|1130
66019904|9396|1|ว.32478|20231027|1200|20231027|1200
66019912|2631|1|ว.28743|20231025|0000|20231025|0000
66019940|1341|1|ว.37254|20231026|0000|20231026|0000
66019941|1341|1|ว.37254|20231026|0000|20231026|0000
66019942|1341|1|ว.37254|20231026|0000|20231026|0000
66019944|1139|1|ว.37254|20231026|0000|20231026|0000
66019945|1371|1|ว.37254|20231026|0000|20231026|0000
66019947|1341|1|ว.37254|20231026|0000|20231026|0000
66019958|1341|1|ว.37254|20231026|0000|20231026|0000
66019959|7535|1|ว.37299|20231025|1036|20231025|1036
66019971|9396|1|ว.53574|20231026|0023|20231026|0023
66019975|9396|1|ว.32478|20231027|1100|20231027|1100
66019976|72940|1|ว.53568|20231025|2000|20231025|2000
66019986|9396|1|ว.32478|20231027|1000|20231027|1000
66019990|9396|1|ว.32478|20231027|1100|20231027|1100
66019996|72940|1|ว.53568|20231025|2000|20231025|2000
66019998|9357|1|ว.16033|20231026|1913|20231026|1913
66019999|9357|1|ว.48960|20231026|0227|20231026|0227
66020002|9396|1|ว.32478|20231027|1000|20231027|1000
66020006|9396|1|ว.32478|20231027|1200|20231027|1200
66020008|8954|1|ว.16033|20231027|0200|20231027|0200
66020013|1132|1|ว.37254|20231026|0000|20231026|0000
66020019|4513|1|ว.53574|20231027|0000|20231027|0000
66020024|9357|1|ว.53574|20231027|0900|20231027|0900
66020042|9396|1|ว.32478|20231027|1200|20231027|1200
66020079|9396|1|ว.32478|20231027|1000|20231027|1000
66020087|9396|1|ว.32478|20231027|1030|20231027|1030
66020088|9396|1|ว.32478|20231027|1020|20231027|1020
